<svg xmlns="http://www.w3.org/2000/svg" viewBox="0 0 16 16">
  <defs>
    <style>
      .cls-1 {
        fill: #9e9e9e;
      }
    </style>
  </defs>
  <g id="Symbol_19_5" data-name="Symbol 19 – 5" transform="translate(-1181 -121)">
    <path id="Union_1" data-name="Union 1" class="cls-1" d="M0,370v-2c0-2.2,3.6-4,8-4s8,1.8,8,4v2Zm4-12a4,4,0,1,1,4,4A4,4,0,0,1,4,358Z" transform="translate(1181 -233)"/>
  </g>
</svg>
